An introduction to data analysis in R
…
Columns of a data frame are indexed with the $ operator, so we can pull out a single column like so:

sum(sharks$beach)

## [1] 4

There are four beach counties in New Jersey.

We can also use numeric indices to pull out rows or columns:

sharks[,4] # column indexing
sharks[1:4,] # row indexing, plus showing 1:4 to generate a sequence from 1 to 4

## # A tibble: 21 x 1
##    beach
##    <int>
##  1     1
##  2     0
##  3     0
##  4     0
##  5     1
##  6     0
##  7     0
##  8     0
##  9     0
## 10     0
## # ... with 11 more rows
…
